﻿[
  {
    "_id": "c-1000",
    "_parentId": "b-100",
    "_type": "component",
    "_component": "text",
    "_classes": "",
    "_layout": "full",
    "title": "Pendahuluan",
    "displayTitle": " ",
    "body": "Untuk kampanye merek yang berhasil, marketer harus menarik perhatian pemirsa mereka di pusat penemuan: Kabar Berita. Hal ini terutama benar untuk bisnis yang menargetkan orang di perangkat seluler, tempat iklan mereka dapat dilihat di antara kiriman dari keluarga dan teman. Inilah alasan mengapa iklan Facebook dan Instagram dapat membantu Anda menjangkau orang yang sangat penting bagi merek Anda.<br><br>Saat Anda ingin mengembangkan merek Anda di Facebook dan Instagram, kursus ini akan bermanfaat dalam menerapkan alat yang Anda miliki untuk membuat kampanye di kedua platform tersebut. Saat Anda selesai, Anda akan dapat:<br><br><li>Mengetahui bagaimana Kabar Berita Facebook menjadi pusat penemuan untuk pemirsa digital dan pemirsa seluler.<br><li>Mengetahui cara untuk membangun merek menggunakan canvas materi iklan yang tersedia di Facebook dan Instagram.<br><li>Mengetahui alat penargetan dan penayangan media kami yang dapat membantu menyampaikan pesan merek Anda melalui corong marketing.",
    "instruction": "",
    "_pageLevelProgress": {
      "_isEnabled": true
    }
  },
  {
        "_id":"c-1990",
        "_parentId":"b-199",
        "_type":"component",
        "_component":"co-jump",
        "_classes":"color-test",
        "_preLinkBody":"Selanjutnya, mari fokus pada langkah pertama dalam membuat kampanye merek yang efektif: ",
        "_linkBody":"Wawasan dan Penargetan",
        "_postLinkBody":".",
        "_link":"#/id/co-02",
        "_graphic":"adapt/css/assets/icon_nextPage.png"
  },
  {
    "_id": "c-2010",
    "_parentId": "b-201",
    "_type": "component",
    "_component": "text",
    "_classes": "",
    "_layout": "full",
    "title": "Wawasan dan Penargetan",
    "displayTitle": " ",
    "body": "Setelah Anda mengetahui tujuan bisnis Anda, sekarang waktunya untuk fokus pada memahami pemirsa dan memilih penargetan Anda.",
    "instruction": "",
    "_pageLevelProgress": {
      "_isEnabled": false
    }
  },
  {
    "_id": "c-2020",
    "_parentId": "b-202",
    "_type": "component",
    "_component": "text",
    "_classes": "",
    "_layout": "full",
    "title": "Wawasan",
    "displayTitle": "Wawasan",
    "body": "Untuk membantu Anda menemukan wawasan tentang orang yang ingin Anda jangkau, kami menawarkan dua alat: alat Wawasan Pemirsa dan Facebook IQ.<br><br><b>Wawasan Pemirsa</b><br>Wawasan Pemirsa adalah sebuah alat yang dirancang untuk membantu marketer mempelajari selengkapnya tentang pemirsa targetnya. Wawasan Pemirsa menunjukkan informasi agregat tentang geografi, demografi, perilaku pembelian, dan lainnya kepada Anda. Anda dapat memilih untuk melihat informasi tentang tiga jenis pemirsa dalam Wawasan Pemirsa:<p align='center'><img src='course/en/images/components/audience_insights.png'/></p><br><br><b>Pemirsa Halaman:</b> Ini melihat orang yang terhubung dengan Halaman (atau acara) Anda. Anda dapat melihat demografi mereka, Halaman lain yang mereka sukai, lokasi mereka, dan bagaimana mereka menggunakan Facebook.<br><br><b>Pemirsa Facebook:</b> Ini melihat semua orang di Facebook. Anda dapat menggunakannya untuk mempelajari selengkapnya tentang pemirsa tertentu (Mis. perempuan berusia 20 hingga 45 tahun), seperti apa yang mereka minati dan perangkat yang mereka gunakan untuk mengakses Facebook.<br><br><b>Pemirsa Khusus:</b> Pemirsa Khusus melihat orang di pemirsa yang sudah Anda buat. Ini dapat berupa pelanggan terbaru yang sudah Anda unggah dari database CRM Anda.<br><br>Semua marketer di Facebook dapat mengakses alat tersebut <a href='https://www.facebook.com/ads/audience_insights' target='new'>di sini</a>.<br><br><i>Untuk mempelajari selengkapnya, kami sarankan mengikuti kursus Blueprint <b>Wawasan Pemirsa</b>.</i>",
    "instruction": "",
    "_pageLevelProgress": {
      "_isEnabled": true
    }
  },
  {
      "_id": "c-2025",
      "_parentId": "b-202",
      "_type": "component",
      "_component": "text",
      "_classes": "",
      "_layout": "full",
      "title": "",
      "displayTitle": "",
      "body": "<div class='fb-button-wrapper'><a href='https://www.facebook.com/ads/audience-insights/?ref=course_brand_best_practices_bp' target='_blank'><button class='bp-button'>Lihat Wawasan Pemirsa</button></a></div><!-- fb-button-wrapper end -->",
      "instruction": "",
      "_pageLevelProgress": {
          "_isEnabled": false
      }
  },
  {
    "_id": "c-2030",
    "_parentId": "b-203",
    "_type": "component",
    "_component": "text",
    "_classes": "",
    "_layout": "full",
    "title": "Facebook IQ",
    "displayTitle": "Facebook IQ",
    "body": "<p align='center'><img src='course/en/images/components/FB_IQ.png'/></p><br>Facebook IQ dijalankan oleh tim yang terdiri dari pimpinan ahli, peneliti, pengamat tren, sosiolog, dan ilmuwan di Facebook. Penelitian mereka memberi marketer pemahaman sesungguhnya tentang orang dan apa arti wawasan ini bagi merek. Ada informasi tentang semua hal mulai dari bagaimana perangkat seluler mengubah cara orang berbelanja selama liburan hingga bagaimana momen seperti kehilangan ponsel seseorang dapat membuka pintu bagi merek untuk menemukan koneksi baru.<br><br>Anda dapat mengakses semua penelitian dan wawasan <a href='http://insights.fb.com/' target='new'>di sini</a>.",
    "instruction": "",
    "_pageLevelProgress": {
      "_isEnabled": true
    }
  },
  {
    "_id": "c-2050",
    "_parentId": "b-205",
    "_type": "component",
    "_component": "text",
    "_classes": "",
    "_layout": "full",
    "title": "Penargetan",
    "displayTitle": "Penargetan",
    "body": "Facebook dan Instagram menawarkan penargetan yang berdasarkan pada <i>orang nyata</i> — bukan proksi.<br><br>Kami menawarkan tiga jenis penargetan berbasis-orang:<br><br><p align='center'><img src='course/en/images/components/targeting_options.png'/></p><br><br><b>Pemirsa Inti</b>: Produk penargetan iklan kami dirancang untuk menjangkau pemirsa yang Anda inginkan. Pertama adalah Pemirsa Inti, cara andal untuk menentukan orang yang ingin Anda jangkau.<br><br>Segmen penargetan diatur berdasarkan jenis penargetan: Demografi, Lokasi, Minat, dan Perilaku.<br><br><li>Demografi: Jangkau orang berdasarkan demografi seperti usia, jenis kelamin, pendidikan, dan lainnya<br><br><li>Lokasi: Jangkau orang di kota, negara, dan komunitas tempat Anda ingin melakukan bisnis<br><br><li>Minat: Jangkau orang berdasarkan minat, hobi, dan Halaman yang mereka sukai di Facebook<br><br><li>Perilaku: Jangkau orang berdasarkan perilaku pembelian, penggunaan perangkat, dan aktivitas lainnya<br><br><i>Pelajari selengkapnya di kursus Blueprint <b>Pemirsa Inti</b>.</i><hr><br><b>Pemirsa Khusus</b>: Dengan Pemirsa Khusus, Anda dapat menjangkau orang di Facebook dan Instagram dengan data yang Anda miliki dalam cara yang aman bagi privasi. Dengan pemirsa ini, Anda dapat menjangkau pelanggan yang sudah Anda kenal, melakukan remarketing kepada mereka, dan melanjutkan pengalaman mereka tentang bisnis Anda.  Ini merupakan cara yang mudah untuk menggunakan data pihak pertama dan menggunakannya untuk aktivasi di seluruh dunia.<br><br><i>Pelajari selengkapnya di kursus Blueprint <b>Pemirsa Khusus</b>.</i><hr><br><b>Pemirsa Serupa</b>: Gunakan Pemirsa Serupa di Facebook dan Instagram untuk menarget orang yang memiliki karakteristik demografi dan perilaku yang sama dengan pelanggan terbaik Anda. Ini dapat digunakan untuk perluasan pemirsa atau pemrospekan.<br><br><i>Pelajari selengkapnya di kursus Blueprint <b>Pemirsa Serupa</b>.</i>",
    "instruction": "",
    "_pageLevelProgress": {
      "_isEnabled": true
    }
  },
  {
        "_id":"c-2051",
        "_parentId":"b-205",
        "_type":"component",
        "_component":"co-jump",
        "_classes":"color-test",
        "_preLinkBody":"Sekarang, mari kita lanjutkan ke ",
        "_linkBody":"Pengembangan Materi Iklan",
        "_postLinkBody":" untuk mempelajari bagaimana Facebook dan Instagram itu dinamis, fleksibel, dan dibuat untuk dunia yang mengutamakan perangkat seluler.",
        "_link":"#/id/co-03",
        "_graphic":"adapt/css/assets/icon_nextPage.png"
  },
  {
    "_id": "c-3000",
    "_parentId": "b-250",
    "_type": "component",
    "_component": "text",
    "_classes": "",
    "_layout": "full",
    "title": "Pengembangan Materi Iklan",
    "displayTitle": "",
    "body": "Facebook dan Instagram merupakan dua kanvas yang dapat membantu menjangkau dan menginspirasi pelanggan dengan materi iklan Anda. Iklan di dua platform ini dapat menjadi bagian dari pengalaman native dan kami memberi Anda fleksibilitas untuk menjalankan ide yang berani dan kreatif. Mari membahas penempatan iklan dan format iklan secara terperinci sehingga Anda dapat memilih apa yang sangat sesuai dengan materi iklan dan pemirsa yang Anda inginkan.",
    "instruction": "",
    "_pageLevelProgress": {
      "_isEnabled": false
    }
  },
  {
    "_id": "c-3001",
    "_parentId": "b-250",
    "_type": "component",
    "_component": "text",
    "_classes": "",
    "_layout": "full",
    "title": "Penempatan Iklan",
    "displayTitle": "Penempatan Iklan",
    "body": "Mari membahas semua penempatan yang tersedia di Facebook, Instagram, dan Audience Network.<br><br>Di Facebook, ada tiga opsi penempatan: Kabar Berita desktop, Kabar Berita seluler, dan kolom kanan desktop.",
    "instruction": "",
    "_pageLevelProgress": {
      "_isEnabled": true
    }
  },
  {
    "_id":"c-3002",
    "_parentId":"b-250",
    "_type":"component",
    "_component":"graphic",
    "_classes":"",
    "_layout":"full",
    "title":"",
    "displayTitle":"",
    "body":"",
    "instruction":"",
    "_graphic": {
        "alt": "teks alt",
        "large": "course/en/images/components/fb_placements.png",
        "small": "course/en/images/components/fb_placements.png",
        "attribution":""
    }
},
{
    "_id": "c-3003",
    "_parentId": "b-250",
    "_type": "component",
    "_component": "text",
    "_classes": "",
    "_layout": "full",
    "title": "",
    "displayTitle": "",
    "body": "<b>Kabar Berita Desktop:</b> Saat Anda memilih penempatan Kabar Berita desktop, iklan Anda akan muncul di Kabar Berita desktop bersama dengan kiriman dari teman dan keluarga orang-orang. Pilih penempatan ini jika Anda ingin menampilkan iklan kepada orang yang menggunakan laptop atau komputer desktop.<br><br><b>Kabar Berita Seluler:</b> Saat Anda memilih Kabar Berita seluler, iklan akan ditayangkan kepada orang yang menggunakan aplikasi Facebook di perangkat seluler. Iklan Anda akan muncul di Kabar Berita orang bersama dengan kiriman dari teman dan keluarga. Pilih penempatan ini jika Anda ingin menjangkau orang yang sedang dalam perjalanan.<br><br><b>Kolom Kanan Desktop:</b> Dengan penempatan ini, iklan Anda dapat ditayangkan di kolom kanan Facebook. Ingat bahwa iklan kolom kanan hanya ditayangkan kepada orang yang menggunakan Facebook versi desktop. Jika Anda ingin menayangkan iklan kepada orang yang menggunakan laptop atau komputer desktop, maka sebaiknya Anda mempertimbangkan untuk menggunakan penempatan iklan ini.",
    "instruction": ""
  },
  {
    "_id": "c-3006",
    "_parentId": "b-251",
    "_type": "component",
    "_component": "text",
    "_classes": "",
    "_layout": "left",
    "title": "Instagram",
    "displayTitle": "",
    "body": "Di Instagram, iklan disematkan secara alami di kabar pada perangkat seluler.",
    "instruction": "",
    "_pageLevelProgress": {
      "_isEnabled": true
    }
  },
  {
    "_id":"c-3009",
    "_parentId":"b-251",
    "_type":"component",
    "_component":"graphic",
    "_classes":"",
    "_layout":"right",
    "title":"",
    "displayTitle":"",
    "body":"",
    "instruction":"",
    "_graphic": {
        "alt": "teks alt",
        "large": "course/en/images/components/instagram_example.png",
        "small": "course/en/images/components/instagram_example.png",
        "attribution":""
    }
},
{
    "_id": "c-3010",
    "_parentId": "b-251",
    "_type": "component",
    "_component": "text",
    "_classes": "",
    "_layout": "full",
    "title": "",
    "displayTitle": "",
    "body": "<b>Instagram:</b> Dengan penempatan ini, iklan Anda dapat ditayangkan secara native di kabar seluler orang. Jika iklan Anda menggunakan beragam visual dan emosi untuk menyampaikan cerita Anda, Instagram dapat menjadi opsi yang bagus karena orang menggunakan platform ini untuk mengikuti hal yang mereka minati dan menjelajahi dunia melalui gambar — baik gambar dan video. Harap diingat bahwa iklan Instagram tidak akan ditayangkan kepada orang yang melihat Instagram di komputer desktop atau situs seluler lain di luar aplikasi Instagram iOS dan Android.",
    "instruction": ""
  },
  {
    "_id": "c-3011",
    "_parentId": "b-252",
    "_type": "component",
    "_component": "text",
    "_classes": "",
    "_layout": "full",
    "title": "Audience Network",
    "displayTitle": "",
    "body": "Di Audience Network, Anda dapat memperluas jangkauan kampanye Facebook Anda ke aplikasi seluler berkualitas tinggi dan situs web seluler.<br><br><b>Audience Network:</b> Dengan penempatan ini, iklan Kabar Berita seluler Anda secara dinamis menjadi iklan native, iklan spanduk, atau iklan interstisial pada penerbit yang disetujui Facebook yang semakin meningkat jumlahnya. Ini dapat membantu Anda menjangkau lebih banyak orang, lebih sering, dan di lebih banyak tempat. <p align='center'><img src='course/en/images/components/audience_network.png'/></p><br><br><i>Catatan:</i> Iklan Anda mungkin tidak memenuhi syarat untuk semua penempatan di atas, tergantung tujuan iklan Anda. Klik <a href='https://www.facebook.com/business/help/274759766036201/' target='new'>di sini</a> untuk mempelajari selengkapnya.",
    "instruction": "",
    "_pageLevelProgress": {
      "_isEnabled": true
    }
  },
  {
    "_id": "c-3500",
    "_parentId": "b-254",
    "_type": "component",
    "_component": "text",
    "_classes": "",
    "_layout": "full",
    "title": "Format Iklan",
    "displayTitle": "Format Iklan",
    "body": "Tergantung materi iklan Anda, berikut ini format iklan yang tersedia di Facebook dan Instagram.",
    "instruction": "",
    "_pageLevelProgress": {
      "_isEnabled": true
    }
  },
  {
    "_id": "c-3600",
    "_parentId": "b-254",
    "_type": "component",
    "_component": "text",
    "_classes": "",
    "_layout": "left",
    "title": "Foto",
    "displayTitle": "",
    "body": "<b>Foto:</b> Iklan foto tetap menjadi pilihan populer. Iklan foto dapat membantu mendorong interaksi dari pemirsa Anda, terutama di Instagram — platform yang fokus pada inspirasi visual. Ketika membuat iklan foto, Anda dapat mengunggah beberapa foto dan melihat foto mana yang dapat membantu iklan Anda untuk memberikan kinerja terbaik.",
    "instruction": "",
      "_pageLevelProgress": {
      "_isEnabled": true
    }
  },
  {
      "_id":"c-3601",
      "_parentId":"b-254",
      "_type":"component",
      "_component":"graphic",
      "_classes":"",
      "_layout":"right",
      "title":"",
      "displayTitle":"",
      "body":"",
      "instruction":"",
      "_graphic": {
          "alt": "teks alt",
          "large": "course/en/images/components/image_ad.png",
          "small": "course/en/images/components/image_ad.png",
          "attribution":""
      }
  },
    {
    "_id": "c-3602",
    "_parentId": "b-256",
    "_type": "component",
    "_component": "text",
    "_classes": "",
    "_layout": "full",
    "title": "",
    "displayTitle": "",
    "body": "<hr>",
    "instruction": ""
  },
  {
    "_id": "c-3620",
    "_parentId": "b-256",
    "_type": "component",
    "_component": "text",
    "_classes": "",
    "_layout": "right",
    "title": "Video",
    "displayTitle": "",
    "body": "<b>Video:</b> Iklan video dapat membantu Anda menarik perhatian orang saat mereka menggulir kabar berita, terutama dengan bantuan fitur putar otomatis. Video Anda akan langsung diputar saat video masuk dalam pandangan orang. Selain itu, kami memberi lebih banyak fleksibilitas dari iklan tradisional — Anda dapat menggunakan video yang lebih pendek untuk mempertahankan perhatian.<br><br><cite>Sumber: <a href='https://www.facebook.com/business/success/strongbow' target='new'>Strongbow Hard Apple Ciders - Kisah Sukses Facebook</a></cite>",
    "instruction": "",
      "_pageLevelProgress": {
      "_isEnabled": true
    }
  },
   {
      "_id":"c-3625",
      "_parentId":"b-256",
      "_type":"component",
      "_component":"framed-video",
      "_classes":"",
      "_layout":"right",
      "title":"",
      "displayTitle":"",
      "body":"",
      "_videoPosition":"top",
      "_componentHeight":"687px",
      "_videoPt":{"x":"51px","y":"260px"},
      "instruction":"",
      "_items": [
          {

              "frame":  "<img src='course/en/images/components/jaspers_phone.png'/>"
          },
          {
              "video":  "<video controls poster='course/en/video/strongbow_video.png' id='vid' max-width='244px' width='244px' controls='controls'><source src='course/en/video/strongbow_video.mp4' type='video/mp4'></video>"
          }
      ]
  },
  {
      "_id": "c-3639",
    "_parentId": "b-257",
    "_type": "component",
    "_component": "text",
    "_classes": "",
    "_layout": "full",
    "title": "",
    "displayTitle": "",
    "body": "<hr>",
    "instruction": ""
  },
  {
    "_id": "c-3640",
    "_parentId": "b-257",
    "_type": "component",
    "_component": "text",
    "_classes": "",
    "_layout": "left",
    "title": "Karosel",
    "displayTitle": "",
    "body": "<b>Karosel:</b> Format karosel memberi Anda lebih banyak keistimewaan materi iklan di kabar berita dan menawarkan peluang untuk menyampaikan cerita yang lebih mendalam. Anda dapat menampilkan hingga 10 gambar yang dapat diklik atau video dalam satu unit iklan. Video akan diputar otomatis saat mereka bergeser ke dalam pandangan, memberi Anda opsi untuk menggunakan beberapa video yang akan diputar saat pemirsa menggulir secara horizontal melalui format tersebut.",
    "instruction": "",
      "_pageLevelProgress": {
      "_isEnabled": true
    }
  },
  {
      "_id":"c-3641",
      "_parentId":"b-257",
      "_type":"component",
      "_component":"graphic",
      "_classes":"",
      "_layout":"right",
      "title":"",
      "displayTitle":"",
      "body":"",
      "instruction":"",
      "_graphic": {
          "alt": "teks alt",
          "large": "course/en/images/components/carousel_ad.png",
          "small": "course/en/images/components/carousel_ad.png",
          "attribution":""
      }
  },
    {
    "_id": "c-3643",
    "_parentId": "b-258",
    "_type": "component",
    "_component": "text",
    "_classes": "",
    "_layout": "full",
    "title": "",
    "displayTitle": "",
    "body": "<hr>",
    "instruction": ""
  },
  {
    "_id": "c-3650",
    "_parentId": "b-258",
    "_type": "component",
    "_component": "text",
    "_classes": "",
    "_layout": "right",
    "title": "Canvas",
    "displayTitle": "",
    "body": "<b>Canvas:</b> Dengan menggunakan perpaduan video, gambar diam, dan tombol ajakan-bertindak, bisnis dapat menggunakan Canvas untuk menghidupkan konten mereka dalam pengalaman yang dimuat dengan cepat dan lancar di perangkat seluler. Orang dapat menggeser karosel gambar, memiringkan perangkatnya untuk melihat gambar panorama, dan memperbesar untuk melihat gambar dan video secara terperinci. Anda dapat memiliki kontrol materi iklan sepenuhnya dalam menyampaikan cerita merek Anda ketika menggunakan Canvas. (Canvas saat ini hanya tersedia di Facebook.)<br><br><cite>Sumber: <a href='https://www.facebook.com/business/success/loccitane' target='_blank'>L'Occitane – Kisah Sukses Facebook</a></cite>",
    "instruction": "",
      "_pageLevelProgress": {
      "_isEnabled": true
    }
  },
  {
        "_id":"c-3700",
        "_parentId":"b-258",
        "_type":"component",
        "_component":"framed-video",
        "_classes":"",
        "_layout":"left",
        "title":"Unit Canvas L'Occitane",
        "displayTitle":"",
        "body":"",
        "_componentHeight":"600px",
        "_componentWidth":"380px",
        "_videoPosition":"top",
        "_videoPt":{"x":"123px","y":"61px"},
        "instruction":"",
        "_items": [
            {

                "frame":  "<img width='550px' height='480px' src='course/en/images/components/iphone_white.png'/>"
            },
            {
                "video":  "<video controls poster='course/en/images/components/loccitane_poster.png' id='vid' width='200px' controls='controls'><source src='course/en/video/loccitane_35.mp4' type='video/mp4'></video>"
            }
        ]
    },
    {
    "_id": "c-3750",
    "_parentId": "b-262",
    "_type": "component",
    "_component": "text",
    "_classes": "",
    "_layout": "full",
    "title": "Ajakan-Bertindak",
    "displayTitle": "",
    "body": "<b>Ajakan-Bertindak:</b> Dipadukan dengan format iklan di atas, Anda dapat mendorong interaksi lebih lanjut dengan merek Anda melalui tombol ajakan-bertindak ini, tersedia di Facebook dan Instagram:<br><br><li>Pesan Sekarang<br><li>Hubungi Kami<br><li>Unduh<br><li>Pelajari Selengkapnya<br><li>Belanja Sekarang<br><li>Daftar<br><li>Tonton Lainnya<br><li>Daftar Sekarang</li><br><br><i>Pelajari selengkapnya tentang merancang materi iklan Anda dan beberapa praktik terbaik di kursus Blueprint <b>Praktik Terbaik Materi Iklan</b>.</i>",
    "instruction": "",
        "_pageLevelProgress": {
      "_isEnabled": true
    }
  },
  {
        "_id":"c-3990",
        "_parentId":"b-262",
        "_type":"component",
        "_component":"co-jump",
        "_classes":"color-test",
        "_preLinkBody":"Setelah kita membahas semua penempatan dan format iklan yang tersedia, mari lanjut ke ",
        "_linkBody":"Perencanaan dan Penerapan",
        "_postLinkBody":" kampanye merek Anda.",
        "_link":"#/id/co-04",
        "_graphic":"adapt/css/assets/icon_nextPage.png"
    },
  {
    "_id": "c-4000",
    "_parentId": "b-300",
    "_type": "component",
    "_component": "text",
    "_classes": "",
    "_layout": "full",
    "title": "Perencanaan dan Penerapan",
    "displayTitle": "",
    "body": "Ketika merencanakan kampanye merek Anda, penting untuk memahami apa tujuan merek yang coba Anda capai <i>sebelum</i> memutuskan solusi penawaran yang akan digunakan.",
    "instruction": "",
    "_pageLevelProgress": {
      "_isEnabled": false
    }
  },
  {
    "_id": "c-4010",
    "_parentId": "b-300",
    "_type": "component",
    "_component": "text",
    "_classes": "",
    "_layout": "full",
    "title": "Perencanaan",
    "displayTitle": "Perencanaan",
    "body": "Saat Anda merencanakan kampanye di Facebook dan Instagram, tanyakan pada diri Anda beberapa pertanyaan:<br><br><li><b>Apa tujuan bisnis yang coba saya capai? Bagaimana mereka memetakan ke tujuan bisnis saya secara keseluruhan?</b> Misalnya, tujuan Anda dapat berupa meningkatkan brand awareness atau mengubah persepsi merek. Pikirkan tentang peran yang akan dimainkan Facebook dan Instagram dalam kampanye Anda.<br><br><li><b>Seperti apa keberhasilan itu? Bagaimana saya akan mengukur hasil?</b> Dengan mengidentifikasi metrik yang ingin Anda catat sebelum peluncuran kampanye, Anda dan mitra Anda dapat bekerja sama untuk tujuan yang sama.<br><br><li><b>Siapa yang coba saya jangkau?</b> Dengan mengajukan pertanyaan ini, Anda dapat memastikan bahwa Anda menjangkau pemirsa yang Anda maksud dengan materi iklan yang tepat.",
    "instruction": "",
    "_pageLevelProgress": {
      "_isEnabled": true
    }
  },
  {
    "_id": "c-4020",
    "_parentId": "b-302",
    "_type": "component",
    "_component": "graphic",
    "_classes": "",
    "_layout": "full",
    "title": "Penerapan",
    "displayTitle": "Penerapan",
    "body": "Berikut ini adalah tampilan sekilas opsi penawaran Anda berdasarkan tujuan merek yang Anda pilih:",
    "instruction": "",
    "_graphic": {
      "alt": "",
      "title": "",
      "large": "course/en/images/components/bidding_tree.png",
      "medium": "course/en/images/components/bidding_tree.png",
      "small": "course/en/images/components/bidding_tree.png"
    },
    "_pageLevelProgress": {
      "_isEnabled": true
    }
  },
    {
    "_id": "c-4022",
    "_parentId": "b-302",
    "_type": "component",
    "_component": "text",
    "_classes": "",
    "_layout": "full",
    "title": "",
    "displayTitle": "",
    "body": "Kami akan membahas semua opsi penawaran dengan lebih terperinci, dimulai dengan jangkauan dan frekuensi.",
    "instruction": "",
    "_pageLevelProgress": {
      "_isEnabled": false
    }
  },
  {
    "_id": "c-4021",
    "_parentId": "b-302",
    "_type": "component",
    "_component": "text",
    "_classes": "",
    "_layout": "full",
    "title": "Jangkauan dan Frekuensi",
    "displayTitle": "Jangkauan dan Frekuensi",
    "body": "Praktik terbaik untuk menjangkau pemirsa Anda dengan pesan merek Anda itu sedikit berbeda di Facebook dan Instagram dibandingkan dengan iklan tradisional. Alih-alih mencoba menjangkau orang sebanyak mungkin dan berharap Anda menjangkau orang yang tepat, Anda dapat menggunakan alat Facebook dan Instagram untuk secara khusus menarget orang yang tepat.<br><br>Dengan jangkauan dan frekuensi, Anda dapat:<br><br><li>Merencanakan kampanye Anda lebih awal.<br><li>Mengelola pangsa suara untuk pemirsa target Anda.<br><li>Menerima jangkauan dan penetapan harga yang dapat diprediksi. Jangkauan dan penetapan harga dilaporkan sebelum kampanye. Anda hanya membayar untuk apa yang ditayangkan Facebook dan Instagram (jika kampanye Anda tidak mencapai tujuan).<br><li>Menjangkau orang yang tepat di semua perangkat.<br><li>Membeli dalam mode swalayan (selalu aktif yang baru) dengan mudah — melalui Power Editor, Pengelola Iklan, dan melalui API.<br><br><p align='left'><img src='course/en/images/components/reach_frequency.png'/></p><br><br><i>Pelajari selengkapnya di kursus Blueprint <b>Pembelian Jangkauan dan Frekuensi di Facebook</b>.</i>",
    "instruction": "",
    "_pageLevelProgress": {
      "_isEnabled": true
    }
  },
  {
    "_id": "c-4023",
    "_parentId": "b-302",
    "_type": "component",
    "_component": "text",
    "_classes": "",
    "_layout": "full",
    "title": "Pembelian Target Rating Points (TRP)",
    "displayTitle": "Pembelian Target Rating Points (TRP)",
    "body": "Dengan pembelian TRP di Facebook, Anda dapat membeli TRP yang diverifikasi oleh Nielsen.<sup>*</sup>Anda dapat menggunakan opsi perencanaan dan pembelian ini untuk membeli video Facebook secara mudah dan terprediksi dan memperoleh jaminan penayangan terhadap pemirsa demografi Nielsen.",
    "instruction": "",
    "_pageLevelProgress": {
      "_isEnabled": true
    }
  },
  {
    "_id": "c-4024",
    "_parentId": "b-302",
    "_type": "component",
    "_component":"canvas-animation",
    "_classes":"",
    "_layout":"full",
    "title":"",
    "displayTitle":"",
    "animationName":"TestAnimation",
    "animation":"course/en/animations/test/testAnimation.js",
    "body":"<div id='TestAnimation'></div><br><cite><sup>*</sup>Tersedia untuk iklan yang ditargetkan ke pasar Nielsen termasuk AS, Inggris, Jerman, Prancis, Italia, Brasil, Australia, dan Kanada</cite><br><br><i>Pelajari tentang pembelian TRP di kursus Blueprint <b>Facebook dan TV</b>.</i>",
    "_resources": {
        "leftImage":"course/en/images/components/tv_campaign.png",
        "centerImage":"course/en/images/components/extend_reach.png",
        "rightImage":"course/en/images/components/nielsen.png",
        "leftText":"Kampanye TV Anda",
        "centerText":"Perluas jangkauan dengan iklan video Facebook dan Instagram",
        "rightText":"TRP diverifikasi\noleh Nielsen*"
    },
    "instruction":"",
    "_pageLevelProgress": {
    "_isEnabled": false
    }
},
{
    "_id": "c-4025",
    "_parentId": "b-304",
    "_type": "component",
    "_component": "text",
    "_classes": "",
    "_layout": "full",
    "title": "Mengoptimalkan untuk Jangkauan",
    "displayTitle": "Mengoptimalkan untuk Jangkauan",
    "body": "Ketika mengoptimalkan untuk jangkauan, Anda dapat menayangkan iklan Anda untuk memaksimalkan jangkauan unik dalam jangka waktu yang dipilih. Misalnya, jika Anda memilih satu minggu sebagai jangka waktu Anda, kami akan mengoptimalkan untuk jangkauan unik untuk minggu tersebut, lalu mengatur ulang perhitungan frekuensi setelah satu minggu. ",
    "instruction": "",
    "_pageLevelProgress": {
      "_isEnabled": true
    }
  },
  {
    "_id": "c-4026",
    "_parentId": "b-304",
    "_type": "component",
    "_component": "text",
    "_classes": "",
    "_layout": "full",
    "title": "Mengoptimalkan untuk Tayangan Video",
    "displayTitle": "Mengoptimalkan untuk Tayangan Video",
    "body": "Dengan mengoptimalkan untuk tayangan video, Anda dapat mengoptimalkan tawaran Anda secara efisien untuk menampilkan iklan kepada orang yang kemungkinan akan melihat video Anda. Tayangan video di Facebook didefinisikan sebagai video yang ditonton selama tiga detik atau lebih lama. Gunakan penawaran yang dioptimalkan untuk tayangan video apabila efisiensi anggaran sangat penting bagi Anda guna memastikan Anda membelanjakan untuk menjangkau orang yang kemungkinan akan melihat video.",
    "instruction": "",
    "_pageLevelProgress": {
      "_isEnabled": true
    }
  },
  {
    "_id": "c-4027",
    "_parentId": "b-304",
    "_type": "component",
    "_component": "text",
    "_classes": "",
    "_layout": "full",
    "title": "Mengoptimalkan untuk Brand Awareness",
    "displayTitle": "Mengoptimalkan untuk Brand Awareness",
    "body": "Dengan tujuan Brand Awareness, yang tersedia di lelang iklan di Pengelola Iklan dan Power Editor, Anda dapat meningkatkan awareness dengan mengoptimalkan untuk jangkauan atau perhatian (brand awareness).<br><br><b>Pengoptimalan Brand Awareness:</b> Padukan jangkauan dan perhatian untuk membantu pengiklan merek meningkatkan awareness<br><br>Kami mendapati bahwa, ketika menyangkut kampanye merek, yang terpenting bukan hanya jumlah orang yang Anda jangkau — hal yang tak kalah penting adalah melakukan terobosan dan mendapatkan perhatian orang-orang. Dengan menganalisis ratusan kampanye merek, kami mendapati bahwa semakin lama waktu yang dihabiskan seseorang dengan iklan, maka semakin besar kemungkinan mereka akan mengingat apa yang mereka lihat.<br><br><b>Pengoptimalan jangkauan:</b> Pengiklan dapat memaksimalkan jumlah unik orang yang melihat iklan Anda dalam periode waktu tertentu.",
    "instruction": "",
    "_pageLevelProgress": {
      "_isEnabled": true
    }
  },
  {
    "_id": "c-4027a",
    "_parentId": "b-304",
    "_type": "component",
    "_component": "text",
    "_classes": "",
    "_layout": "full",
    "title": "",
    "displayTitle": "",
    "body": "<div class='fb-button-wrapper'><a href='https://www.facebook.com/ads/create/?ref=course_brand_best_practices_bp' target='_blank'><button class='bp-button'>Buat Iklan</button></a></div><!-- fb-button-wrapper end -->",
    "instruction": "",
    "_pageLevelProgress": {
        "_isEnabled": false
    }
},
  {
        "_id":"c-4028",
        "_parentId":"b-310",
        "_type":"component",
        "_component":"co-jump",
        "_classes":"color-test",
        "_preLinkBody":"Hampir tiba waktunya untuk mengakhiri kursus ini! Mari lanjut mempelajari tentang solusi ",
        "_linkBody":"Pengukuran",
        "_postLinkBody":" yang tersedia untuk tujuan merek.",
        "_link":"#/id/co-05",
        "_graphic":"adapt/css/assets/icon_nextPage.png"
  },

  {
    "_id": "c-4110",
    "_parentId": "b-311",
    "_type": "component",
    "_component":"animate-message",
    "_classes": {"border-radius":"0px"},
    "_layout":"left",
    "title":"",
    "displayTitle":"",
    "body":"<br>Filosofi kami tentang mengukur dampak marketing didasarkan pada tiga hal:",
    "instruction":"",
    "titleAnimation":"transition.slideRightIn",
    "bodyAnimation":"transition.slideRightIn",
    "backgroundColor":"#fbcc9f,#fbe5cf,#fbcc9f,#fbe5cf",
    "_cornerRadius":"0px",
    "_pageLevelProgress": {
        "_isEnabled": false
    },
    "_disableAnimation":true,
    "_items": [
    {
        "item_title": "",
        "body":"<div style='padding:20px;'><b>Capaian Pemirsa:</b><ul><li>Berapa banyak orang yang dijangkau iklan Anda? Seberapa sering?</li><li>Apakah iklan menjangkau orang/pemirsa yang tepat?</li><li>Apakah iklan menjangkau orang lintas perangkat?</li><ul></div>"
    },
    {
        "item_title": "",
        "body":"<div style='padding:20px;'><b>Capaian Merek:</b><ul><li>Apakah iklan tepat sasaran? Apakah iklan dapat diingat?</li><li>Apakah iklan menghasilkan brand awareness?</li><li>Apakah iklan mengubah persepsi tentang merek Anda?</li></ul></div>"
    },
    {
        "item_title": "",
        "body":"<div style='padding:20px;'><b>Hasil Penjualan:</b><ul><li>Apakah iklan mendorong hasil bisnis Anda? Apakah iklan berkontribusi untuk ROI?</li><li>Apakah iklan menghasilkan penjualan, prospek, atau pemasangan aplikasi?</li></ul></div>"
    }
    ]
    },
    {
    "_id": "c-4111",
    "_parentId": "b-311",
    "_type": "component",
    "_component":"graphic",
    "_classes":"",
    "_layout":"right",
    "title":"",
    "displayTitle":"",
    "body":"",
    "instruction":"",
    "_graphic": {
        "alt": "teks alt",
        "src": "course/en/images/components/three_Rs_4.png",
        "attribution":""
    }
    },
    {
    "_id": "c-4113",
    "_parentId": "b-312",
    "_type": "component",
    "_component": "text",
    "_classes": "",
    "_layout": "full",
    "title": "Jangkauan, Resonansi, Tanggapan",
    "displayTitle": "",
    "body": "(Penting untuk memilih studi pengukuran yang tepat untuk apa yang ingin Anda ukur. Kami sarankan untuk mendaftar kursus Blueprint <b>Solusi Pengukuran Merek</b> guna mendapatkan gambaran umum yang mendalam tentang semua solusi pengukuran kami untuk kampanye merek.)<br><br>Jika Anda mengukur efektivitas materi iklan Anda, pastikan Anda melihat daftar periksa materi iklan ini sebelum menjalankan kampanye Anda:<br><br><ul><li><b>Uji di lingkungan yang relevan:</b> Pastikan bahwa materi iklan Anda dioptimalkan untuk lingkungan tempat iklan tersebut dilihat. Jika kampanye Anda ditujukan untuk perangkat seluler, periksa materi iklan tersebut di perangkat seluler — bukan tampilan komputer.<br><br>Jika Anda menggunakan video, ingat bahwa video mungkin diputar tanpa suara. Tanyakan pada diri Anda, apakah pesan tetap tersampaikan?</li><br><li><b>Keterkaitan merek:</b> Mengidentifikasi pengiklan seharusnya menjadi hal yang sangat mudah. Pastikan ada branding yang kuat untuk mengubah ad recall dan metrik lainnya. Untuk video, pastikan bahwa merek dapat dilihat dalam tiga detik pertama dan sepanjang video.</li><br><li><b>Keterlihatan:</b> Saat menggulir Kabar Berita Anda, apakah materi iklan ini akan menarik perhatian Anda?</li><br><li><b>Relevansi dan kesesuaian:</b> Apakah pesan Anda menarik dan relevan secara emosional bagi pemirsa target? Jika ada beberapa bagian materi iklan, pastikan ada kesatuan pesan.</li><br><li><b>Fokus merek:</b> Apakah iklan difokuskan jauh dari direct response? Jika Anda mendorong tujuan merek, pastikan iklan tidak meminta tindakan langsung.</li></ul>",
    "instruction": "",
    "_pageLevelProgress": {
      "_isEnabled": true
    }
  },
  {
        "_id":"c-4122",
        "_parentId":"b-315",
        "_type":"component",
        "_component":"co-jump",
        "_classes":"color-test",
        "_preLinkBody":"Sekarang, kita akan melihat tampilan pertama pada bagaimana beberapa merek berhasil menggunakan iklan Facebook dan iklan Instagram untuk membangun merek mereka. Mari lanjut ke ",
        "_linkBody":"Kisah Sukses",
        "_postLinkBody":".",
        "_link":"#/id/co-06",
        "_graphic":"adapt/css/assets/icon_nextPage.png"
    },
  {
    "_id": "c-5000",
    "_parentId": "b-500",
    "_type": "component",
    "_component": "text",
    "_classes": "",
    "_layout": "full",
    "title": "Kisah Sukses",
    "displayTitle": "",
    "body": "Perusahaan di seluruh dunia membangun merek mereka dengan iklan Facebook dan iklan Instagram. Lihat bagaimana perusahaan ini meluncurkan kampanye yang berhasil:",
    "instruction": "",
    "_pageLevelProgress": {
      "_isEnabled": false
    }
  },
  {
    "_id": "c-5002",
    "_parentId": "b-500",
    "_type": "component",
    "_component": "graphic",
    "_classes": "",
    "_layout": "full",
    "title": "Salesforce",
    "displayTitle": "Salesforce",
    "body": "",
    "instruction": "",
    "_graphic": {
      "alt": "",
      "title": "",
      "large": "course/en/images/components/salesforce.png",
      "medium": "course/en/images/components/salesforce.png",
      "small": "course/en/images/components/salesforce.png"
    },
      "_pageLevelProgress": {
      "_isEnabled": true
    }
  },
  {
    "_id": "c-5003",
    "_parentId": "b-505",
    "_type": "component",
    "_component": "graphic",
    "_classes": "",
    "_layout": "full",
    "title": "",
    "displayTitle": "",
    "body": "Salesforce, perusahaan manajemen hubungan pelanggan (CRM) nomor satu di dunia, memberdayakan perusahaan untuk terhubung dengan pelanggannya dengan cara yang benar-benar baru. Konferensi tahunan, Dreamforce, merupakan konferensi perangkat lunak terbesar di dunia, dengan lebih dari 160.000 orang dari 78 negara mendaftar untuk menghadirinya di tahun 2015.<br><br><b>Mempromosikan Free Expo+ Pass</b><br>Salesforce ingin meningkatkan awareness dan menciptakan minat di kalangan individu berkualitas guna mendorong pendaftaran online untuk konferensi tahunan Dreamforce, yang diadakan di San Francisco.<br><br><b>Materi Iklan yang Berwawasan</b><br>Wawasan Pemirsa mengungkapkan bahwa penggemar Salesforce biasanya bekerja dalam bidang teknologi tinggi, bisnis, dan penjualan, sehingga tim Salesforce mendesain materi iklan untuk 4 persona target: Pengembang, Marketer, Saleswoman, dan Salesman. Di Instagram, materi iklan karosel menampilkan profesional muda yang bahagia melayang ke langit San Fransisco.",
    "instruction": "",
    "_graphic": {
      "alt": "",
      "title": "",
      "large": "course/en/images/components/salesforce_example.png",
      "medium": "course/en/images/components/salesforce_example.png",
      "small": "course/en/images/components/salesforce_example.png"
    }
  },
  {
    "_id": "c-5004",
    "_parentId": "b-505",
    "_type": "component",
    "_component": "text",
    "_classes": "",
    "_layout": "full",
    "title": "",
    "displayTitle": "",
    "body": "<b>Aspek Positif</b><br>Antara Juli 2015 dan September 2015, Salesforce mencapai:<br><br><li>5 juta orang unik dijangkau di Instagram<br><li>Baya per pendaftaran 17% lebih rendah dibandingkan tujuan<br><li>22,7 juta tayangan di Facebook<hr><cite>Sumber: <a href='https://www.facebook.com/business/success/salesforce-3' target='new'> Salesforce - Kisah Sukses Facebook</a>",
    "instruction": ""
  },
  {
    "_id": "c-5006",
    "_parentId": "b-505",
    "_type": "component",
    "_component": "graphic",
    "_classes": "",
    "_layout": "full",
    "title": "Direct Energy",
    "displayTitle": "Direct Energy",
    "body": "",
    "instruction": "",
    "_graphic": {
      "alt": "",
      "title": "",
      "large": "course/en/images/components/direct_energy.png",
      "medium": "course/en/images/components/direct_energy.png",
      "small": "course/en/images/components/direct_energy.png"
    },
    "_pageLevelProgress": {
      "_isEnabled": true
    }
  },
  {
    "_id": "c-5007",
    "_parentId": "b-505",
    "_type": "component",
    "_component": "graphic",
    "_classes": "",
    "_layout": "full",
    "title": "",
    "displayTitle": "",
    "body": "Direct Energy merupakan salah satu penyedia listrik, gas alam, dan layanan rumah terbesar di Amerika Utara. Misinya adalah memberi pelanggan alat dan layanan yang mereka butuhkan untuk menjadi konsumen energi yang cerdas, mendukung layanan rumah tangga mereka, dan menghemat biaya.<br><br><b>Opsi yang Jelas</b><br>Direct Energy ingin menunjukkan bahwa perusahaannya menawarkan nilai yang lebih baik dan lebih banyak opsi dari penyedia lain untuk membantu mendorong interaksi dan klik ke situs webnya. Perusahaan ini juga ingin menarget calon pelanggan yang mencari penyedia energi baru, baik di dalam dan di luar pasar energi Texas yang sangat kompetitif.<br><br><b>Penargetan yang Cerdas</b><br>Direct Energi menggunakan iklan karosel untuk mendidik pelanggan tentang opsi energi dan menampilkan rencana kompetitif perusahaan, dengan menggunakan materi iklan yang mencerminkan kehidupan rumah tangga dan prioritas pelanggan yang berbeda. Misalnya, sebuah iklan yang menarget para orang tua yang mempertimbangkan anggaran, menampilkan seorang anak memakai jubah pahlawan super favoritnya, memperkenalkan janji bahwa \"Anda Memiliki Kekuatan untuk Menghemat.\"<br><br>Mereka menjalankan iklan pada periode waktu ketika pelanggan biasanya meneliti opsi energi, dan juga menggunakan penargetan perilaku untuk menjangkau orang yang tertarik dengan renovasi rumah, perbaikan rumah, dan kesinambungan. Perusahaan ini mengukur interaksi merek dengan cara menempatkan piksel Facebook di halaman tertentu di seluruh situs webnya.",
    "instruction": "",
    "_graphic": {
      "alt": "",
      "title": "",
      "large": "course/en/images/components/direct_energy_example.png",
      "medium": "course/en/images/components/direct_energy_example.png",
      "small": "course/en/images/components/direct_energy_example.png"
    }
  },
  {
    "_id": "c-5008",
    "_parentId": "b-505",
    "_type": "component",
    "_component": "text",
    "_classes": "",
    "_layout": "full",
    "title": "",
    "displayTitle": "",
    "body": "<b>Koneksi yang Kuat</b><br>Iklan karosel membantu Direct Energy terhubung dengan grup pemirsa yang luas namun ditargetkan secara strategis, dengan biaya yang jauh lebih rendah dibandingkan dengan media periklanan lain.<br><br>Dibandingkan dengan kampanye iklan tautan mereka pada bulan Mei 2015, pada bulan November 2015 kampanye iklan karosel meraih hasil berikut:<br><br><li>Penurunan biaya per klik sebesar 56%<br><li>Peningkatan interaksi sebesar 2,5X<br><li>Peningkatan klik sebesar 2,4X</li><hr><cite>Sumber: <a href='https://www.facebook.com/business/success/direct-energy' target='new'>Direct Energy - Kisah Sukses Facebook</a>",
    "instruction": "",
    "_pageLevelProgress": {
      "_isEnabled": false
    }
  },
  {
        "_id":"c-5009",
        "_parentId":"b-510",
        "_type":"component",
        "_component":"co-jump",
        "_classes":"color-test",
        "_preLinkBody":"Kita sudah membahas banyak informasi dalam kursus ini, jadi mari kita lakukan ",
        "_linkBody":"Uji Pengetahuan",
        "_postLinkBody":".",
        "_link":"#/id/co-07",
        "_graphic":"adapt/css/assets/icon_nextPage.png"
    },
  {
    "_id":"c-5010",
    "_parentId":"b-570",
    "_type":"component",
    "_component":"mcq",
    "_classes":"",
    "_layout":"full",
    "_attempts":1,
    "_questionWeight":1,
    "_isRandom":false,
    "_selectable":1,
    "title": "Pertanyaan 1 dari 5",
    "displayTitle": "Pertanyaan 1 dari 5",
    "body": "Apa yang menjadi langkah pertama bagi bisnis dalam merencanakan kampanye merek yang berhasil di Facebook dan Instagram?",
    "instruction": "",
    "_setCompletionOn": "inview",
    "_items": [
      {
        "text": "Memilih opsi penawaran",
        "_shouldBeSelected":false
      },
      {
        "text": "Mengidentifikasi tujuan bisnis mereka",
        "_shouldBeSelected":true
      },
      {
        "text": "Memahami pemirsa mereka dan memilih penargetan mereka",
        "_shouldBeSelected":false
      },
      {
        "text": "Mengembangkan aset materi iklan",
        "_shouldBeSelected":false
      }
    ],
    "_feedback":{
      "correct":"Jawaban benar! Bisnis pertama-tama harus mengidentifikasi tujuan bisnisnya saat merencanakan kampanye merek yang berhasil di Facebook dan Instagram.",
      "_incorrect": {
        "notFinal": "",
        "final": "Maaf, jawaban salah. Bisnis pertama-tama harus mengidentifikasi tujuan bisnisnya saat merencanakan kampanye merek yang berhasil di Facebook dan Instagram."
      },
      "_partlyCorrect": {
        "notFinal": "",
        "final": "Jika Anda beriklan untuk sebuah merek, Anda harus menawar untuk jangkauan dan frekuensi atau mengoptimalkan penawaran untuk tayangan video."
      }
    },
 "_buttons": {
        "_submit": {
            "buttonText": "Kirim",
            "ariaLabel": "Kirimkan jawaban Anda dengan mengeklik di sini."
        },
        "_reset": {
            "buttonText": "Atur Ulang",
            "ariaLabel": "Atur ulang pertanyaannya dengan mengeklik di sini."
        },
        "_showCorrectAnswer": {
            "buttonText": "Jawaban yang benar",
            "ariaLabel": "Tampilkan jawaban yang benar dengan mengeklik di sini."
        },
        "_hideCorrectAnswer": {
            "buttonText": "Jawaban saya",
            "ariaLabel": "Tampilkan jawaban yang Anda berikan dengan mengeklik di sini."
        },
        "_showFeedback": {
            "buttonText": "Tampilkan masukan",
            "ariaLabel": "Lihat jawaban masukan lagi dengan mengeklik di sini."
        },
        "remainingAttemptsText": "sisa percobaan",
        "remainingAttemptText": "percobaan terakhir",
        "disabledAriaLabel": "Saat ini tombol ini dinonaktifkan."
    },
    "_pageLevelProgress": {
      "_isEnabled": true
    }
  },  {
    "_id":"c-5020",
    "_parentId":"b-571",
    "_type":"component",
    "_component":"mcq",
    "_classes":"",
    "_layout":"full",
    "_attempts":1,
    "_questionWeight":1,
    "_isRandom":false,
    "_selectable":3,
    "title": "Pertanyaan 2 dari 5",
    "displayTitle": "Pertanyaan 2 dari 5",
    "body": "Apa tiga opsi penargetan berbasis orang yang ditawarkan Facebook dan Instagram? (Pilih tiga)",
    "instruction": "",
    "_setCompletionOn": "inview",
    "_items": [
      {
        "text": "Pemirsa Inti",
        "_shouldBeSelected":true
      },
      {
        "text": "Pemirsa Dinamis",
        "_shouldBeSelected":false
      },
      {
        "text": "Pemirsa Khusus",
        "_shouldBeSelected":true
      },
      {
        "text": "Pemirsa Serupa",
        "_shouldBeSelected":true
      },
      {
        "text": "Pemirsa Bersegmen",
        "_shouldBeSelected":false
      }
    ],
    "_feedback":{
      "correct":"Jawaban benar! Facebook dan Instagram menawarkan tiga opsi penargetan: Pemirsa Inti, Pemirsa Khusus, dan pemirsa serupa.",
      "_incorrect": {
        "notFinal": "",
        "final": "Maaf, jawaban salah. Facebook dan Instagram menawarkan tiga opsi penargetan: Pemirsa Inti, Pemirsa Khusus, dan pemirsa serupa."
      },
      "_partlyCorrect": {
        "notFinal": "",
        "final": "Maaf, setidaknya ada satu jawaban Anda yang salah. Facebook dan Instagram menawarkan tiga opsi penargetan: Pemirsa Inti, Pemirsa Khusus, dan pemirsa serupa."
      }
    },
 "_buttons": {
        "_submit": {
            "buttonText": "Kirim",
            "ariaLabel": "Kirimkan jawaban Anda dengan mengeklik di sini."
        },
        "_reset": {
            "buttonText": "Atur Ulang",
            "ariaLabel": "Atur ulang pertanyaannya dengan mengeklik di sini."
        },
        "_showCorrectAnswer": {
            "buttonText": "Jawaban yang benar",
            "ariaLabel": "Tampilkan jawaban yang benar dengan mengeklik di sini."
        },
        "_hideCorrectAnswer": {
            "buttonText": "Jawaban saya",
            "ariaLabel": "Tampilkan jawaban yang Anda berikan dengan mengeklik di sini."
        },
        "_showFeedback": {
            "buttonText": "Tampilkan masukan",
            "ariaLabel": "Lihat jawaban masukan lagi dengan mengeklik di sini."
        },
        "remainingAttemptsText": "sisa percobaan",
        "remainingAttemptText": "percobaan terakhir",
        "disabledAriaLabel": "Saat ini tombol ini dinonaktifkan."
    },
    "_pageLevelProgress": {
      "_isEnabled": true
    }
  },
  {
    "_id":"c-5030",
    "_parentId":"b-572",
    "_type":"component",
    "_component":"mcq",
    "_classes":"",
    "_layout":"full",
    "_attempts":1,
    "_questionWeight":1,
    "_isRandom":false,
    "_selectable":1,
    "title": "Pertanyaan 3 dari 5",
    "displayTitle": "Pertanyaan 3 dari 5",
    "body": "Bisnis sudah memilih untuk menggunakan format karosel. Berapa jumlah gambar atau video yang dapat digunakan dalam satu unit iklan?",
    "instruction": "",
    "_setCompletionOn": "inview",
    "_items": [
      {
        "text": "Hingga tiga gambar yang dapat diklik atau video.",
        "_shouldBeSelected":false
      },
      {
        "text": "Hingga total 10 gambar yang dapat diklik, video, atau perpaduan kedua format ini.",
        "_shouldBeSelected":true
      },
      {
        "text": "Hingga dua video dan hingga tiga gambar.",
        "_shouldBeSelected":false
        },
      {
        "text": "Hingga lima gambar. Video tidak diperbolehkan di format karosel.",
        "_shouldBeSelected":false
      }
    ],
    "_feedback":{
      "correct":"Jawaban benar! Bisnis dapat menggunakan hingga 10 gambar yang dapat diklik ATAU video saat menggunakan format karosel.",
      "_incorrect": {
        "notFinal": "",
        "final": "Maaf, jawaban salah. Bisnis dapat menggunakan hingga 10 gambar yang dapat diklik, video, atau perpaduan keduanya saat menggunakan format karosel."
      },
      "_partlyCorrect": {
        "notFinal": "",
        "final": ""
      }
    },
 "_buttons": {
        "_submit": {
            "buttonText": "Kirim",
            "ariaLabel": "Kirimkan jawaban Anda dengan mengeklik di sini."
        },
        "_reset": {
            "buttonText": "Atur Ulang",
            "ariaLabel": "Atur ulang pertanyaannya dengan mengeklik di sini."
        },
        "_showCorrectAnswer": {
            "buttonText": "Jawaban yang benar",
            "ariaLabel": "Tampilkan jawaban yang benar dengan mengeklik di sini."
        },
        "_hideCorrectAnswer": {
            "buttonText": "Jawaban saya",
            "ariaLabel": "Tampilkan jawaban yang Anda berikan dengan mengeklik di sini."
        },
        "_showFeedback": {
            "buttonText": "Tampilkan masukan",
            "ariaLabel": "Lihat jawaban masukan lagi dengan mengeklik di sini."
        },
        "remainingAttemptsText": "sisa percobaan",
        "remainingAttemptText": "percobaan terakhir",
        "disabledAriaLabel": "Saat ini tombol ini dinonaktifkan."
    },
    "_pageLevelProgress": {
      "_isEnabled": true
    }
  },
  {
    "_id":"c-5031",
    "_parentId":"b-572",
    "_type":"component",
    "_component":"mcq",
    "_classes":"",
    "_layout":"full",
    "_attempts":1,
    "_questionWeight":1,
    "_isRandom":false,
    "_selectable":1,
    "title": "Pertanyaan 4 dari 5",
    "displayTitle": "Pertanyaan 4 dari 5",
    "body": "Ketika bisnis fleksibel dengan jangkauan atau penayangan kampanyenya, dan ingin fokus pada ad recall, opsi penawaran mana yang kami sarankan?",
    "instruction": "",
    "_setCompletionOn": "inview",
    "_items": [
      {
        "text": "Jangkauan dan frekuensi",
        "_shouldBeSelected":false
      },
      {
        "text": "Pembelian TRP",
        "_shouldBeSelected":false
      },
      {
        "text": "Dioptimalkan untuk jangkauan",
        "_shouldBeSelected":false
        },
      {
        "text": "Dioptimalkan untuk tayangan video",
        "_shouldBeSelected":false
      },
      {
        "text": "Dioptimalkan untuk brand awareness",
        "_shouldBeSelected":true
      }
    ],
    "_feedback":{
      "correct":"Jawaban benar! Bisnis harus mengoptimalkan untuk brand awareness apabila fokus mereka adalah ad recall.",
      "_incorrect": {
        "notFinal": "",
        "final": "Maaf, jawaban salah. Bisnis harus mengoptimalkan untuk brand awareness apabila fokus mereka adalah ad recall."
      },
      "_partlyCorrect": {
        "notFinal": "",
        "final": ""
      }
    },
 "_buttons": {
        "_submit": {
            "buttonText": "Kirim",
            "ariaLabel": "Kirimkan jawaban Anda dengan mengeklik di sini."
        },
        "_reset": {
            "buttonText": "Atur Ulang",
            "ariaLabel": "Atur ulang pertanyaannya dengan mengeklik di sini."
        },
        "_showCorrectAnswer": {
            "buttonText": "Jawaban yang benar",
            "ariaLabel": "Tampilkan jawaban yang benar dengan mengeklik di sini."
        },
        "_hideCorrectAnswer": {
            "buttonText": "Jawaban saya",
            "ariaLabel": "Tampilkan jawaban yang Anda berikan dengan mengeklik di sini."
        },
        "_showFeedback": {
            "buttonText": "Tampilkan masukan",
            "ariaLabel": "Lihat jawaban masukan lagi dengan mengeklik di sini."
        },
        "remainingAttemptsText": "sisa percobaan",
        "remainingAttemptText": "percobaan terakhir",
        "disabledAriaLabel": "Saat ini tombol ini dinonaktifkan."
    },
    "_pageLevelProgress": {
      "_isEnabled": true
    }
  },
  {
    "_id":"c-5032",
    "_parentId":"b-572",
    "_type":"component",
    "_component":"mcq",
    "_classes":"",
    "_layout":"full",
    "_attempts":1,
    "_questionWeight":1,
    "_isRandom":false,
    "_selectable":1,
    "title": "Pertanyaan 5 dari 5",
    "displayTitle": "Pertanyaan 5 dari 5",
    "body": "Faktor apa yang menjadi fokus Facebook dan Instagram ketika mengukur dampak marketing?",
    "instruction": "",
    "_setCompletionOn": "inview",
    "_items": [
      {
        "text": "Capaian Pemirsa, Capaian Merek, Capaian Relevansi",
        "_shouldBeSelected":false
        },
      {
        "text": "Capaian Pemirsa, Capaian Merek, Hasil Penjualan",
        "_shouldBeSelected":true
      },
      {
        "text": "Capaian Merek, Capaian Relevansi, Hasil Penjualan",
        "_shouldBeSelected":false
      },
      {
        "text": "Capaian Merek, Capaian Efisiensi, Capaian Relevansi",
        "_shouldBeSelected":false
      }

    ],
    "_feedback":{
      "correct":"Jawaban benar! Kami mengukur dampak marketing berdasarkan Capaian Pemirsa, Capaian Merek, dan Hasil Penjualan.",
      "_incorrect": {
        "notFinal": "",
        "final": "Maaf, jawaban Anda salah. Kami mengukur dampak marketing berdasarkan Capaian Pemirsa, Capaian Merek, dan Hasil Penjualan."
      },
      "_partlyCorrect": {
        "notFinal": "",
        "final": ""
      }
    },
 "_buttons": {
        "_submit": {
            "buttonText": "Kirim",
            "ariaLabel": "Kirimkan jawaban Anda dengan mengeklik di sini."
        },
        "_reset": {
            "buttonText": "Atur Ulang",
            "ariaLabel": "Atur ulang pertanyaannya dengan mengeklik di sini."
        },
        "_showCorrectAnswer": {
            "buttonText": "Jawaban yang benar",
            "ariaLabel": "Tampilkan jawaban yang benar dengan mengeklik di sini."
        },
        "_hideCorrectAnswer": {
            "buttonText": "Jawaban saya",
            "ariaLabel": "Tampilkan jawaban yang Anda berikan dengan mengeklik di sini."
        },
        "_showFeedback": {
            "buttonText": "Tampilkan masukan",
            "ariaLabel": "Lihat jawaban masukan lagi dengan mengeklik di sini."
        },
        "remainingAttemptsText": "sisa percobaan",
        "remainingAttemptText": "percobaan terakhir",
        "disabledAriaLabel": "Saat ini tombol ini dinonaktifkan."
    },
    "_pageLevelProgress": {
      "_isEnabled": true
    }
  },
  {
      "_id":"c-7001",
      "_parentId":"b-572",
      "_type":"component",
      "_component":"co-jump",
      "_classes":"color-test",
      "_autoComplete":true,
      "_preLinkBody":"Klik tombol di bawah untuk menyelesaikan kursus ini. Catatan: <a href='#'>klik di sini</a> untuk memastikan bahwa Anda sudah menyelesaikan masing-masing modul.<br>",
      "_linkBody":"<div style = 'text-align:center;padding:8px;'><button class='buttons-action'><b>SAYA SUDAH MENYELESAIKAN KURSUS INI</b></button></div><br> ",
      "_postLinkBody":"",
      "_link":"",
      "_pageLevelProgress": {
          "_isEnabled": false
      }
    }

]
